fromNode	toNode	weight	direction	fromAltName	toAltName
PSMA3	PSMC6.5	0.0235636856168083	undirected	PSMA3	PSMC6
PSMA3	MTHFD1	0.0233492532388988	undirected	PSMA3	MTHFD1
PSMC6	PSMC6.3	0.0973223267567966	undirected	PSMC6	PSMC6
PSMC6	PSMC6.4	0.0885854117564033	undirected	PSMC6	PSMC6
PSMC6	PSMC6.5	0.0398797690522954	undirected	PSMC6	PSMC6
RPL36AL	EAPP	0.0220305029730388	undirected	RPL36AL	EAPP
PSMC1	EIF2S1	0.0262165371387184	undirected	PSMC1	EIF2S1
PSMC1	PSMC6.2	0.0205847167417328	undirected	PSMC1	PSMC6
PSMC1	PSMC6.5	0.0216730673660943	undirected	PSMC1	PSMC6
CALM1	CALM1.2	0.485089443498081	undirected	CALM1	CALM1
EIF2S1	PSMC6.1	0.0221657792916212	undirected	EIF2S1	PSMC6
EIF2S1	PSMC6.2	0.02098400229048	undirected	EIF2S1	PSMC6
EIF2S1	PSMC6.3	0.0299435571362496	undirected	EIF2S1	PSMC6
EIF2S1	PSMC6.4	0.0407592785499715	undirected	EIF2S1	PSMC6
EIF2S1	PSMC6.5	0.039163832596749	undirected	EIF2S1	PSMC6
PSMC6.1	PSMC6.2	0.131265235593754	undirected	PSMC6	PSMC6
PSMC6.1	PSMC6.3	0.0965068040094408	undirected	PSMC6	PSMC6
PSMC6.1	PSMC6.4	0.0701652948313932	undirected	PSMC6	PSMC6
PSMC6.1	PSMC6.5	0.153361580225626	undirected	PSMC6	PSMC6
PSMC6.2	PSMC6.3	0.0996130446389947	undirected	PSMC6	PSMC6
PSMC6.2	PSMC6.4	0.119353896527894	undirected	PSMC6	PSMC6
PSMC6.2	PSMC6.5	0.209660303635465	undirected	PSMC6	PSMC6
PSMC6.3	PSMC6.4	0.201309832027135	undirected	PSMC6	PSMC6
PSMC6.3	PSMC6.5	0.161267699220093	undirected	PSMC6	PSMC6
PSMC6.4	PSMC6.5	0.162348575216312	undirected	PSMC6	PSMC6
